<?xml version="1.0" encoding="utf-8"?>
<!-- Generator: Adobe Illustrator 16.0.0, SVG Export Plug-In . SVG Version: 6.00 Build 0)  -->
<!DOCTYPE svg PUBLIC "-//W3C//DTD SVG 1.1//EN" "http://www.w3.org/Graphics/SVG/1.1/DTD/svg11.dtd">
<svg version="1.1" id="Layer_1" xmlns="http://www.w3.org/2000/svg" xmlns:xlink="http://www.w3.org/1999/xlink" x="0px" y="0px"
	 width="1607.8px" height="1096.1px" viewBox="0 0 1607.8 1096.1" style="enable-background:new 0 0 1607.8 1096.1;"
	 xml:space="preserve">
<style type="text/css">
<![CDATA[
	.st0{fill:#4CB648;}
	.st1{fill:#F06059;}
	.st2{font-size:18.99;}
	.st3{font-family:'SofiaProRegular';}
	.st4{fill:#5E5E5E;}
	.st5{font-family:'Karla-Regular';}
	.st6{fill:#FDBB2E;}
	.st7{opacity:0.8;}
	.st8{fill:#FFC442;}
	.st9{fill:#FFFFFF;}
	.st10{font-size:20;}
	.st11{fill:#3D3639;}
	.st12{fill:#D8D8D2;}
]]>
</style>
<rect class="st8" width="1607.8" height="1096.1"/>
<g>
	<rect x="108.8" y="166.8" class="st11" width="1352.7" height="1093.7"/>
	<g>
		<g>
			<text transform="matrix(1 0 0 1 190.6514 236.376)"><tspan x="0" y="0" class="st4 st3 st2">Gruntfile.js</tspan><tspan x="0" y="22.8" class="st4 st3 st2">LICENSE-MIT</tspan><tspan x="0" y="45.6" class="st4 st3 st2">README.md</tspan><tspan x="0" y="68.4" class="st4 st3 st2">bower.json</tspan><tspan x="0" y="91.2" class="st4 st3 st2">kickstart</tspan><tspan x="0" y="113.9" class="st4 st3 st2">package.json</tspan><tspan x="0" y="136.7" class="st4 st3 st2">node_modules</tspan><tspan x="0" y="159.5" class="st4 st3 st2">public</tspan><tspan x="0" y="182.3" class="st4 st3 st2">    index.html</tspan><tspan x="0" y="205.1" class="st4 st3 st2">    style.css</tspan><tspan x="0" y="227.9" class="st4 st3 st2">src</tspan><tspan x="0" y="250.7" class="st4 st3 st2">    img</tspan><tspan x="0" y="273.5" class="st4 st3 st2">    js</tspan><tspan x="0" y="296.2" class="st4 st3 st2">       site.js</tspan><tspan x="0" y="319" class="st4 st3 st2">   scss</tspan><tspan x="0" y="341.8" class="st4 st3 st2">        _buttons.scss</tspan><tspan x="0" y="364.6" class="st4 st3 st2">        _helpers.scss</tspan><tspan x="0" y="387.4" class="st4 st3 st2">        _scaffold.scss</tspan><tspan x="0" y="410.2" class="st4 st3 st2">        _settings.scss</tspan><tspan x="0" y="433" class="st4 st3 st2">        _typography.scss</tspan><tspan x="0" y="455.8" class="st4 st3 st2">        _utilities.scss</tspan><tspan x="0" y="478.5" class="st4 st3 st2">        _z-index.scss</tspan><tspan x="0" y="501.3" class="st4 st3 st2">         style.scss</tspan><tspan x="0" y="524.1" class="st4 st3 st2">tasks</tspan><tspan x="0" y="546.9" class="st4 st3 st2">    grunt_tasks.js</tspan><tspan x="0" y="569.7" class="st4 st3 st2">    options</tspan><tspan x="0" y="592.5" class="st4 st3 st2">        autoprefixer.js</tspan><tspan x="0" y="615.3" class="st4 st3 st2">        bower.js</tspan><tspan x="0" y="638.1" class="st4 st3 st2">        concat.js</tspan><tspan x="0" y="660.9" class="st4 st3 st2">        cssmin.js</tspan><tspan x="0" y="683.6" class="st4 st3 st2">        express.js</tspan><tspan x="0" y="706.4" class="st4 st3 st2">        http.js</tspan><tspan x="0" y="729.2" class="st4 st3 st2">        imagemin.js</tspan><tspan x="0" y="752" class="st4 st3 st2">        jshint.js</tspan><tspan x="0" y="774.8" class="st4 st3 st2">        open.js</tspan><tspan x="0" y="797.6" class="st4 st3 st2">        rsync.js</tspan><tspan x="0" y="820.4" class="st4 st3 st2">        sass.js</tspan><tspan x="0" y="843.2" class="st4 st3 st2">        svgmin.js</tspan><tspan x="0" y="865.9" class="st4 st3 st2">        uglify.js</tspan><tspan x="0" y="888.7" class="st4 st3 st2">        uncss.js</tspan><tspan x="0" y="911.5" class="st4 st3 st2">        watch.js</tspan><tspan x="0" y="934.3" class="st4 st3 st2">tmp</tspan><tspan x="0" y="957.1" class="st4 st3 st2">index.htm</tspan></text>
			<text transform="matrix(1 0 0 1 190.6514 236.376)"><tspan x="0" y="0" class="st9 st3 st2">Gruntfile.js</tspan><tspan x="0" y="22.8" class="st9 st3 st2">LICENSE-MIT</tspan><tspan x="0" y="45.6" class="st9 st3 st2">README.md</tspan><tspan x="0" y="68.4" class="st9 st3 st2">bower.json</tspan><tspan x="0" y="91.2" class="st9 st3 st2">kickstart</tspan><tspan x="0" y="113.9" class="st9 st3 st2">package.json</tspan><tspan x="0" y="136.7" class="st9 st3 st2">node_modules</tspan><tspan x="0" y="159.5" class="st9 st3 st2">public</tspan><tspan x="0" y="182.3" class="st9 st3 st2">    index.html</tspan><tspan x="0" y="205.1" class="st9 st3 st2">    style.css</tspan><tspan x="0" y="227.9" class="st9 st3 st2">src</tspan><tspan x="0" y="250.7" class="st9 st3 st2">    img</tspan><tspan x="0" y="273.5" class="st9 st3 st2">    js</tspan><tspan x="0" y="296.2" class="st9 st3 st2">       site.js</tspan><tspan x="0" y="319" class="st9 st3 st2">   scss</tspan><tspan x="0" y="341.8" class="st9 st3 st2">        _buttons.scss</tspan><tspan x="0" y="364.6" class="st9 st3 st2">        _helpers.scss</tspan><tspan x="0" y="387.4" class="st9 st3 st2">        _scaffold.scss</tspan><tspan x="0" y="410.2" class="st9 st3 st2">        _settings.scss</tspan><tspan x="0" y="433" class="st9 st3 st2">        _typography.scss</tspan><tspan x="0" y="455.8" class="st9 st3 st2">        _utilities.scss</tspan><tspan x="0" y="478.5" class="st9 st3 st2">        _z-index.scss</tspan><tspan x="0" y="501.3" class="st9 st3 st2">         style.scss</tspan><tspan x="0" y="524.1" class="st9 st3 st2">tasks</tspan><tspan x="0" y="546.9" class="st9 st3 st2">    grunt_tasks.js</tspan><tspan x="0" y="569.7" class="st9 st3 st2">    options</tspan><tspan x="0" y="592.5" class="st9 st3 st2">        autoprefixer.js</tspan><tspan x="0" y="615.3" class="st9 st3 st2">        bower.js</tspan><tspan x="0" y="638.1" class="st9 st3 st2">        concat.js</tspan><tspan x="0" y="660.9" class="st9 st3 st2">        cssmin.js</tspan><tspan x="0" y="683.6" class="st9 st3 st2">        express.js</tspan><tspan x="0" y="706.4" class="st9 st3 st2">        http.js</tspan><tspan x="0" y="729.2" class="st9 st3 st2">        imagemin.js</tspan><tspan x="0" y="752" class="st9 st3 st2">        jshint.js</tspan><tspan x="0" y="774.8" class="st9 st3 st2">        open.js</tspan><tspan x="0" y="797.6" class="st9 st3 st2">        rsync.js</tspan><tspan x="0" y="820.4" class="st9 st3 st2">        sass.js</tspan><tspan x="0" y="843.2" class="st9 st3 st2">        svgmin.js</tspan><tspan x="0" y="865.9" class="st9 st3 st2">        uglify.js</tspan><tspan x="0" y="888.7" class="st9 st3 st2">        uncss.js</tspan><tspan x="0" y="911.5" class="st9 st3 st2">        watch.js</tspan><tspan x="0" y="934.3" class="st9 st3 st2">tmp</tspan><tspan x="0" y="957.1" class="st9 st3 st2">index.htm</tspan></text>
		</g>
		<g class="st7">
			<polygon class="st9" points="175.2,224.8 174.2,224.8 174.2,1189.7 174.3,1189.7 174.3,1190.2 183.8,1190.2 183.8,1189.2 
				175.2,1189.2 175.2,1165.7 183.8,1165.7 183.8,1164.7 175.2,1164.7 175.2,755.4 183.8,755.4 183.8,754.4 175.2,754.4 
				175.2,391.8 183.8,391.8 183.8,390.8 175.2,390.8 175.2,368.5 183.8,368.5 183.8,367.5 175.2,367.5 175.2,346.5 183.8,346.5 
				183.8,345.5 175.2,345.5 175.2,322 183.8,322 183.8,321 175.2,321 175.2,300 183.8,300 183.8,299 175.2,299 175.2,276.7 
				183.8,276.7 183.8,275.7 175.2,275.7 175.2,253.5 183.8,253.5 183.8,252.5 175.2,252.5 175.2,231.6 183.8,231.6 183.8,230.6 
				175.2,230.6 			"/>
			<rect x="197" y="1162.3" class="st9" width="9.5" height="1"/>
			<polygon class="st9" points="219.7,573.1 219.7,572.1 211.3,572.1 211.3,564.8 210.3,564.8 210.3,572.1 210.2,572.1 210.2,573.1 
				210.3,573.1 210.3,595.3 210.2,595.3 210.2,596.3 210.3,596.3 210.3,619.4 210.2,619.4 210.2,620.4 210.3,620.4 210.3,642.7 
				210.2,642.7 210.2,643.7 210.3,643.7 210.3,664.6 210.2,664.6 210.2,665.6 210.3,665.6 210.3,686.7 210.2,686.7 210.2,687.7 
				210.3,687.7 210.3,710.3 210.2,710.3 210.2,711.3 210.3,711.3 210.3,732.9 210.2,732.9 210.2,733.9 219.7,733.9 219.7,732.9 
				211.3,732.9 211.3,711.3 219.7,711.3 219.7,710.3 211.3,710.3 211.3,687.7 219.7,687.7 219.7,686.7 211.3,686.7 211.3,665.6 
				219.7,665.6 219.7,664.6 211.3,664.6 211.3,643.7 219.7,643.7 219.7,642.7 211.3,642.7 211.3,620.4 219.7,620.4 219.7,619.4 
				211.3,619.4 211.3,596.3 219.7,596.3 219.7,595.3 211.3,595.3 211.3,573.1 			"/>
			<polygon class="st9" points="203.8,436.6 194.8,436.6 194.8,412.8 203.8,412.8 203.8,411.8 194.8,411.8 194.8,404.6 193.8,404.6 
				193.8,437.6 203.8,437.6 			"/>
			<polygon class="st9" points="194.3,551.7 203.8,551.7 203.8,550.7 194.8,550.7 194.8,505.8 203.8,505.8 203.8,504.8 194.8,504.8 
				194.8,480.5 203.8,480.5 203.8,479.5 194.8,479.5 194.8,468.7 193.8,468.7 193.8,551.2 194.3,551.2 			"/>
			<polygon class="st9" points="203.8,802.1 194.8,802.1 194.8,779.3 203.8,779.3 203.8,778.3 194.8,778.3 194.8,768.8 193.8,768.8 
				193.8,803.1 203.8,803.1 			"/>
			<polygon class="st9" points="211.3,817.1 210.3,817.1 210.3,824.3 210.2,824.3 210.2,825.3 210.3,825.3 210.3,846.3 210.2,846.3 
				210.2,847.3 210.3,847.3 210.3,869.3 210.2,869.3 210.2,870.3 210.3,870.3 210.3,892.5 210.2,892.5 210.2,893.5 210.3,893.5 
				210.3,915.7 210.2,915.7 210.2,916.7 210.3,916.7 210.3,936.5 210.2,936.5 210.2,937.5 210.3,937.5 210.3,960.2 210.2,960.2 
				210.2,961.2 210.3,961.2 210.3,983.9 210.2,983.9 210.2,984.9 210.3,984.9 210.3,1005.9 210.2,1005.9 210.2,1006.9 210.3,1006.9 
				210.3,1029 210.2,1029 210.2,1030 210.3,1030 210.3,1052.1 210.2,1052.1 210.2,1053.1 210.3,1053.1 210.3,1074.1 210.2,1074.1 
				210.2,1075.1 210.3,1075.1 210.3,1097.8 210.2,1097.8 210.2,1098.8 210.3,1098.8 210.3,1119.2 210.2,1119.2 210.2,1120.2 
				210.3,1120.2 210.3,1143.5 210.2,1143.5 210.2,1144.5 219.7,1144.5 219.7,1143.5 211.3,1143.5 211.3,1120.2 219.7,1120.2 
				219.7,1119.2 211.3,1119.2 211.3,1098.8 219.7,1098.8 219.7,1097.8 211.3,1097.8 211.3,1075.1 219.7,1075.1 219.7,1074.1 
				211.3,1074.1 211.3,1053.1 219.7,1053.1 219.7,1052.1 211.3,1052.1 211.3,1030 219.7,1030 219.7,1029 211.3,1029 211.3,1006.9 
				219.7,1006.9 219.7,1005.9 211.3,1005.9 211.3,984.9 219.7,984.9 219.7,983.9 211.3,983.9 211.3,961.2 219.7,961.2 219.7,960.2 
				211.3,960.2 211.3,937.5 219.7,937.5 219.7,936.5 211.3,936.5 211.3,916.7 219.7,916.7 219.7,915.7 211.3,915.7 211.3,893.5 
				219.7,893.5 219.7,892.5 211.3,892.5 211.3,870.3 219.7,870.3 219.7,869.3 211.3,869.3 211.3,847.3 219.7,847.3 219.7,846.3 
				211.3,846.3 211.3,825.3 219.7,825.3 219.7,824.3 211.3,824.3 			"/>
			<polygon class="st9" points="219.1,527.9 211.3,527.9 211.3,518.6 210.3,518.6 210.3,528.9 219.1,528.9 			"/>
		</g>
	</g>
	<path class="st12" d="M1461.5,166.8H109.1c-0.1,0-0.2-0.1-0.2-0.2v-39c0-1.7,1.3-3,3-3h1346.7c1.7,0,3,1.3,3,3V166.8z"/>
	<circle class="st6" cx="176.7" cy="146.3" r="9.7"/>
	<circle class="st0" cx="209.4" cy="146.3" r="9.7"/>
	<circle class="st1" cx="144" cy="146.3" r="9.7"/>
	<text transform="matrix(1 0 0 1 652.1787 152.9458)" class="st5 st10">~/Documents/sanbox/project</text>
</g>
</svg>
